%YAML 1.1
%TAG !u! tag:unity3d.com,2011:
--- !u!21 &2100000
Material:
  serializedVersion: 3
  m_ObjectHideFlags: 0
  m_PrefabParentObject: {fileID: 0}
  m_PrefabInternal: {fileID: 0}
  m_Name: Diffuse
  m_Shader: {fileID: 4800000, guid: d5ee1ee44e7104660951099b8b3f22ed, type: 3}
  m_ShaderKeywords: []
  m_CustomRenderQueue: -1
  m_SavedProperties:
    serializedVersion: 2
    m_TexEnvs:
      data:
        first:
          name: _MainTex
        second:
          m_Texture: {fileID: 2800000, guid: 586f562ba602846afb5f162a2a69813a, type: 3}
          m_Scale: {x: 1, y: 1}
          m_Offset: {x: 0, y: 0}
      data:
        first:
          name: _Diffuse
        second:
          m_Texture: {fileID: 0}
          m_Scale: {x: 1, y: 1}
          m_Offset: {x: 0, y: 0}
      data:
        first:
          name: _Normals
        second:
          m_Texture: {fileID: 2800000, guid: 0a12ba2e7046a487a806776cd7353125, type: 3}
          m_Scale: {x: 1, y: 1}
          m_Offset: {x: 0, y: 0}
      data:
        first:
          name: _Illum
        second:
          m_Texture: {fileID: 0}
          m_Scale: {x: 1, y: 1}
          m_Offset: {x: 0, y: 0}
    m_Floats:
      data:
        first:
          name: _Shininess
        second: .795395494
      data:
        first:
          name: _Bands
        second: 56.7999992
      data:
        first:
          name: _Gloss
        second: 1
      data:
        first:
          name: _EmissionLM
        second: 4.71000004
    m_Colors:
      data:
        first:
          name: _Color
        second: {r: .489655018, g: 0, b: 1, a: 1}
      data:
        first:
          name: _SpecColor
        second: {r: .5, g: .5, b: .5, a: 0}
      data:
        first:
          name: _EmisColor
        second: {r: 1, g: 0, b: 0, a: .360784322}
