%YAML 1.1
%TAG !u! tag:unity3d.com,2011:
--- !u!21 &2100000
Material:
  serializedVersion: 3
  m_ObjectHideFlags: 0
  m_PrefabParentObject: {fileID: 0}
  m_PrefabInternal: {fileID: 0}
  m_Name: Glow_Ludwigia
  m_Shader: {fileID: 4800000, guid: dc7a7d58bf44c44a69c2899caf77dc89, type: 3}
  m_ShaderKeywords: []
  m_CustomRenderQueue: -1
  m_SavedProperties:
    serializedVersion: 2
    m_TexEnvs:
      data:
        first:
          name: _MainTex
        second:
          m_Texture: {fileID: 2800000, guid: 97af597b97dac4aabb17e1c44aef397d, type: 3}
          m_Scale: {x: 1, y: 1}
          m_Offset: {x: 0, y: 0}
      data:
        first:
          name: _BumpMap
        second:
          m_Texture: {fileID: 2800000, guid: df31de602329649e5a3b4034800f320f, type: 3}
          m_Scale: {x: 1, y: 1}
          m_Offset: {x: 0, y: 0}
      data:
        first:
          name: _Detail
        second:
          m_Texture: {fileID: 2800000, guid: df31de602329649e5a3b4034800f320f, type: 3}
          m_Scale: {x: 1, y: 1}
          m_Offset: {x: 0, y: 0}
      data:
        first:
          name: _Emission
        second:
          m_Texture: {fileID: 0}
          m_Scale: {x: 1, y: 1}
          m_Offset: {x: 0, y: 0}
      data:
        first:
          name: _Normal
        second:
          m_Texture: {fileID: 2800000, guid: 340c823bc55054f05b91267f8b3e8551, type: 3}
          m_Scale: {x: 1, y: 1}
          m_Offset: {x: 0, y: 0}
      data:
        first:
          name: _Specular
        second:
          m_Texture: {fileID: 2800000, guid: 99466a3c70c904a80a3c506a43823d7c, type: 3}
          m_Scale: {x: 1, y: 1}
          m_Offset: {x: 0, y: 0}
      data:
        first:
          name: _Grey
        second:
          m_Texture: {fileID: 0}
          m_Scale: {x: 1, y: 1}
          m_Offset: {x: 0, y: 0}
      data:
        first:
          name: _BaseTexture
        second:
          m_Texture: {fileID: 2800000, guid: 7666a4b62434b41a39f805a7f0941ecf, type: 3}
          m_Scale: {x: 1, y: 1}
          m_Offset: {x: 0, y: 0}
      data:
        first:
          name: _ParallaxMap
        second:
          m_Texture: {fileID: 2800000, guid: 6047c257bdb714d09b835a8d4122fce4, type: 3}
          m_Scale: {x: 1, y: 1}
          m_Offset: {x: 0, y: 0}
      data:
        first:
          name: _node_4364
        second:
          m_Texture: {fileID: 2800000, guid: 95ef4804fe0be4c999ddaa383536cde8, type: 3}
          m_Scale: {x: 1, y: 1}
          m_Offset: {x: 0, y: 0}
      data:
        first:
          name: _node_4364_copy
        second:
          m_Texture: {fileID: 2800000, guid: 95ef4804fe0be4c999ddaa383536cde8, type: 3}
          m_Scale: {x: 1, y: 1}
          m_Offset: {x: 0, y: 0}
      data:
        first:
          name: _node_4937
        second:
          m_Texture: {fileID: 2800000, guid: 5cce61f0ba60d4c86a272b33ddee8017, type: 3}
          m_Scale: {x: 1, y: 1}
          m_Offset: {x: 0, y: 0}
      data:
        first:
          name: _node_1216
        second:
          m_Texture: {fileID: 0}
          m_Scale: {x: 1, y: 1}
          m_Offset: {x: 0, y: 0}
      data:
        first:
          name: _Baseexture
        second:
          m_Texture: {fileID: 2800000, guid: 5cce61f0ba60d4c86a272b33ddee8017, type: 3}
          m_Scale: {x: 1, y: 1}
          m_Offset: {x: 0, y: 0}
      data:
        first:
          name: _node_2145
        second:
          m_Texture: {fileID: 2800000, guid: 340c823bc55054f05b91267f8b3e8551, type: 3}
          m_Scale: {x: 1, y: 1}
          m_Offset: {x: 0, y: 0}
      data:
        first:
          name: _MainTexture
        second:
          m_Texture: {fileID: 2800000, guid: 5cce61f0ba60d4c86a272b33ddee8017, type: 3}
          m_Scale: {x: 1, y: 1}
          m_Offset: {x: 0, y: 0}
      data:
        first:
          name: _MainTexture_copy
        second:
          m_Texture: {fileID: 0}
          m_Scale: {x: 1, y: 1}
          m_Offset: {x: 0, y: 0}
      data:
        first:
          name: _MainTexture_copy_copy
        second:
          m_Texture: {fileID: 0}
          m_Scale: {x: 1, y: 1}
          m_Offset: {x: 0, y: 0}
      data:
        first:
          name: _node_9500
        second:
          m_Texture: {fileID: 0}
          m_Scale: {x: 1, y: 1}
          m_Offset: {x: 0, y: 0}
      data:
        first:
          name: _RAMP
        second:
          m_Texture: {fileID: 2800000, guid: 97af597b97dac4aabb17e1c44aef397d, type: 3}
          m_Scale: {x: 1, y: 1}
          m_Offset: {x: 0, y: 0}
      data:
        first:
          name: _RIMMask
        second:
          m_Texture: {fileID: 0}
          m_Scale: {x: 1, y: 1}
          m_Offset: {x: 0, y: 0}
      data:
        first:
          name: _RimCubemap
        second:
          m_Texture: {fileID: 0}
          m_Scale: {x: 1, y: 1}
          m_Offset: {x: 0, y: 0}
      data:
        first:
          name: _ReflectionCubemap
        second:
          m_Texture: {fileID: 0}
          m_Scale: {x: 1, y: 1}
          m_Offset: {x: 0, y: 0}
      data:
        first:
          name: _Ramp2
        second:
          m_Texture: {fileID: 0}
          m_Scale: {x: 1, y: 1}
          m_Offset: {x: 0, y: 0}
      data:
        first:
          name: _NormalMap
        second:
          m_Texture: {fileID: 0}
          m_Scale: {x: 1, y: 1}
          m_Offset: {x: 0, y: 0}
      data:
        first:
          name: _DiffuseTexture
        second:
          m_Texture: {fileID: 0}
          m_Scale: {x: 1, y: 1}
          m_Offset: {x: 0, y: 0}
      data:
        first:
          name: _SpecularMap
        second:
          m_Texture: {fileID: 0}
          m_Scale: {x: 1, y: 1}
          m_Offset: {x: 0, y: 0}
      data:
        first:
          name: _ReflectionMap
        second:
          m_Texture: {fileID: 0}
          m_Scale: {x: 1, y: 1}
          m_Offset: {x: 0, y: 0}
    m_Floats:
      data:
        first:
          name: _Cutoff
        second: .400892854
      data:
        first:
          name: _Shininess
        second: .0538885444
      data:
        first:
          name: _SquashAmount
        second: 1
      data:
        first:
          name: _Fresnel
        second: 1.06221199
      data:
        first:
          name: _Gloss
        second: 7.53856611
      data:
        first:
          name: _Slider
        second: 1
      data:
        first:
          name: _EXP
        second: .810000002
      data:
        first:
          name: _Glow_Intensity
        second: 2.97000003
      data:
        first:
          name: _truefalse
        second: 0
      data:
        first:
          name: _DiffLight
        second: 0
      data:
        first:
          name: _DiffOcc
        second: .49999997
      data:
        first:
          name: _SpecOcc
        second: .928571403
      data:
        first:
          name: _SpecLight
        second: .214285716
      data:
        first:
          name: _Parallax
        second: .0799999982
      data:
        first:
          name: _node_5200
        second: 2.94642854
      data:
        first:
          name: _node_7935
        second: .0892857164
      data:
        first:
          name: _node_8951
        second: 1
      data:
        first:
          name: _node_157
        second: 0
      data:
        first:
          name: _node_1702
        second: 0
      data:
        first:
          name: _Slider_copy
        second: .726495683
      data:
        first:
          name: _node_8154
        second: 0
      data:
        first:
          name: _node_3243
        second: 1
      data:
        first:
          name: _AmbientOcclusion
        second: 1
      data:
        first:
          name: _Light
        second: .607142866
      data:
        first:
          name: _node_6544
        second: 0
      data:
        first:
          name: _RimPower
        second: 0
      data:
        first:
          name: _RimThikness
        second: 0
      data:
        first:
          name: _Reflectiveness
        second: 1
      data:
        first:
          name: _Gloss1
        second: 0
      data:
        first:
          name: _Specularity
        second: 0
      data:
        first:
          name: _BaseLight
        second: .349999994
      data:
        first:
          name: _AO
        second: 4.18571424
      data:
        first:
          name: _Occlusion
        second: 8.9285717
    m_Colors:
      data:
        first:
          name: _LightColor
        second: {r: 0, g: .751724005, b: 1, a: 1}
      data:
        first:
          name: _Color
        second: {r: .388475418, g: .83088237, b: .37267518, a: 1}
      data:
        first:
          name: _SpecColor
        second: {r: .5, g: .5, b: .5, a: 1}
      data:
        first:
          name: _Scale
        second: {r: 1, g: 1, b: 1, a: 1}
      data:
        first:
          name: _GlowColor
        second: {r: .875, g: 0, b: 0, a: 1}
      data:
        first:
          name: _BaseColor
        second: {r: .324222952, g: .514705896, b: .204368532, a: 1}
      data:
        first:
          name: _SpecularColor
        second: {r: .5, g: .5, b: .5, a: 1}
      data:
        first:
          name: _MainColor
        second: {r: 0, g: .985294104, b: .0475660078, a: .243137255}
      data:
        first:
          name: _GlowColor_copy
        second: {r: .911764681, g: .58478713, b: 0, a: 1}
      data:
        first:
          name: _node_9264_copy
        second: {r: .437406182, g: .405709356, b: .823529422, a: .745098054}
      data:
        first:
          name: _node_9264_copy_copy
        second: {r: .963235319, g: .219560996, b: .219560996, a: 0}
      data:
        first:
          name: _node_7329
        second: {r: .0353589803, g: .135745898, b: .801470578, a: 1}
      data:
        first:
          name: _node_7329_copy
        second: {r: 0, g: .00689649582, b: 1, a: 1}
      data:
        first:
          name: _BaseColor_copy
        second: {r: .0304930676, g: .308435708, b: .691176474, a: 1}
      data:
        first:
          name: _node_7053
        second: {r: 1, g: 1, b: 1, a: 0}
      data:
        first:
          name: _BaseColoer
        second: {r: .463235319, g: .463235319, b: .463235319, a: 0}
      data:
        first:
          name: _node_6205
        second: {r: .0344827175, g: 1, b: 0, a: 1}
      data:
        first:
          name: _node_4820
        second: {r: .324137926, g: 1, b: 0, a: 1}
      data:
        first:
          name: _RimColor
        second: {r: 1, g: 1, b: 1, a: 1}
      data:
        first:
          name: _DiffuseColor
        second: {r: 1, g: 1, b: 1, a: 1}
