%YAML 1.1
%TAG !u! tag:unity3d.com,2011:
--- !u!21 &2100000
Material:
  serializedVersion: 3
  m_ObjectHideFlags: 0
  m_PrefabParentObject: {fileID: 0}
  m_PrefabInternal: {fileID: 0}
  m_Name: LudwigiaTest
  m_Shader: {fileID: 4800000, guid: dc7a7d58bf44c44a69c2899caf77dc89, type: 3}
  m_ShaderKeywords:
  - _TRUEFALSE_ON
  m_CustomRenderQueue: -1
  m_SavedProperties:
    serializedVersion: 2
    m_TexEnvs:
      data:
        first:
          name: _MainTex
        second:
          m_Texture: {fileID: 2800000, guid: 97af597b97dac4aabb17e1c44aef397d, type: 3}
          m_Scale: {x: 1, y: 1}
          m_Offset: {x: 0, y: 0}
      data:
        first:
          name: _Normal
        second:
          m_Texture: {fileID: 0}
          m_Scale: {x: 1, y: 1}
          m_Offset: {x: 0, y: 0}
      data:
        first:
          name: _Specular
        second:
          m_Texture: {fileID: 0}
          m_Scale: {x: 1, y: 1}
          m_Offset: {x: 0, y: 0}
      data:
        first:
          name: _BaseTexture
        second:
          m_Texture: {fileID: 0}
          m_Scale: {x: 1, y: 1}
          m_Offset: {x: 0, y: 0}
    m_Floats:
      data:
        first:
          name: _Cutoff
        second: .458928555
      data:
        first:
          name: _Slider
        second: .726495683
      data:
        first:
          name: _EXP
        second: 1
      data:
        first:
          name: _Glow_Intensity
        second: 2.32999992
      data:
        first:
          name: _truefalse
        second: .0316851214
      data:
        first:
          name: _DiffLight
        second: 1
      data:
        first:
          name: _DiffOcc
        second: 0
      data:
        first:
          name: _SpecOcc
        second: 0
      data:
        first:
          name: _SpecLight
        second: 0
      data:
        first:
          name: _SquashAmount
        second: 1
      data:
        first:
          name: _BaseLight
        second: .45714286
      data:
        first:
          name: _AO
        second: 4.54285717
      data:
        first:
          name: _Occlusion
        second: 11.7857141
    m_Colors:
      data:
        first:
          name: _Color
        second: {r: .158034176, g: .580882311, b: .160950348, a: 1}
      data:
        first:
          name: _GlowColor
        second: {r: 0, g: .41450271, b: .985294104, a: 1}
      data:
        first:
          name: _GlowColor_copy
        second: {r: .482454211, g: .985294104, b: 0, a: 1}
      data:
        first:
          name: _BaseColor
        second: {r: .141749203, g: .647058785, b: .123702399, a: 1}
      data:
        first:
          name: _Scale
        second: {r: 1, g: 1, b: 1, a: 1}
