%YAML 1.1
%TAG !u! tag:unity3d.com,2011:
--- !u!21 &2100000
Material:
  serializedVersion: 5
  m_ObjectHideFlags: 0
  m_PrefabParentObject: {fileID: 0}
  m_PrefabInternal: {fileID: 0}
  m_Name: Billboard
  m_Shader: {fileID: 14001, guid: 0000000000000000f000000000000000, type: 0}
  m_ShaderKeywords: EFFECT_BUMP EFFECT_HUE_VARIATION
  m_LightmapFlags: 5
  m_CustomRenderQueue: -1
  m_SavedProperties:
    serializedVersion: 2
    m_TexEnvs:
      data:
        first:
          name: _MainTex
        second:
          m_Texture: {fileID: 2800000, guid: af884291155934c24ab2f6e26e784fd8, type: 3}
          m_Scale: {x: 1, y: 1}
          m_Offset: {x: 0, y: 0}
      data:
        first:
          name: _BumpMap
        second:
          m_Texture: {fileID: 2800000, guid: 641ceafa6fcc043abb0302ec56fae5ca, type: 3}
          m_Scale: {x: 1, y: 1}
          m_Offset: {x: 0, y: 0}
    m_Floats:
      data:
        first:
          name: _Cutoff
        second: .330000013
      data:
        first:
          name: _Shininess
        second: .125
      data:
        first:
          name: _WindQuality
        second: 1
    m_Colors:
      data:
        first:
          name: _TreeInfo0
        second: {r: 0, g: 0, b: 0, a: 0}
      data:
        first:
          name: _TreeInfo1
        second: {r: 0, g: 0, b: 0, a: 0}
      data:
        first:
          name: _TreeInfo2
        second: {r: 0, g: 0, b: 0, a: 0}
      data:
        first:
          name: _TreeInfo3
        second: {r: 0, g: 0, b: 0, a: 0}
      data:
        first:
          name: _TreeSize0
        second: {r: 0, g: 0, b: 0, a: 0}
      data:
        first:
          name: _TreeSize1
        second: {r: 0, g: 0, b: 0, a: 0}
      data:
        first:
          name: _TreeSize2
        second: {r: 0, g: 0, b: 0, a: 0}
      data:
        first:
          name: _TreeSize3
        second: {r: 0, g: 0, b: 0, a: 0}
      data:
        first:
          name: _ImageTexCoords0
        second: {r: 0, g: 0, b: 0, a: 0}
      data:
        first:
          name: _ImageTexCoords1
        second: {r: 0, g: 0, b: 0, a: 0}
      data:
        first:
          name: _ImageTexCoords2
        second: {r: 0, g: 0, b: 0, a: 0}
      data:
        first:
          name: _ImageTexCoords3
        second: {r: 0, g: 0, b: 0, a: 0}
      data:
        first:
          name: _ImageTexCoords4
        second: {r: 0, g: 0, b: 0, a: 0}
      data:
        first:
          name: _ImageTexCoords5
        second: {r: 0, g: 0, b: 0, a: 0}
      data:
        first:
          name: _ImageTexCoords6
        second: {r: 0, g: 0, b: 0, a: 0}
      data:
        first:
          name: _ImageTexCoords7
        second: {r: 0, g: 0, b: 0, a: 0}
      data:
        first:
          name: _ImageTexCoords8
        second: {r: 0, g: 0, b: 0, a: 0}
      data:
        first:
          name: _ImageTexCoords9
        second: {r: 0, g: 0, b: 0, a: 0}
      data:
        first:
          name: _ImageTexCoords10
        second: {r: 0, g: 0, b: 0, a: 0}
      data:
        first:
          name: _ImageTexCoords11
        second: {r: 0, g: 0, b: 0, a: 0}
      data:
        first:
          name: _ImageTexCoords12
        second: {r: 0, g: 0, b: 0, a: 0}
      data:
        first:
          name: _ImageTexCoords13
        second: {r: 0, g: 0, b: 0, a: 0}
      data:
        first:
          name: _ImageTexCoords14
        second: {r: 0, g: 0, b: 0, a: 0}
      data:
        first:
          name: _ImageTexCoords15
        second: {r: 0, g: 0, b: 0, a: 0}
      data:
        first:
          name: _ImageTexCoords16
        second: {r: 0, g: 0, b: 0, a: 0}
      data:
        first:
          name: _ImageTexCoords17
        second: {r: 0, g: 0, b: 0, a: 0}
      data:
        first:
          name: _ImageTexCoords18
        second: {r: 0, g: 0, b: 0, a: 0}
      data:
        first:
          name: _ImageTexCoords19
        second: {r: 0, g: 0, b: 0, a: 0}
      data:
        first:
          name: _ImageTexCoords20
        second: {r: 0, g: 0, b: 0, a: 0}
      data:
        first:
          name: _ImageTexCoords21
        second: {r: 0, g: 0, b: 0, a: 0}
      data:
        first:
          name: _ImageTexCoords22
        second: {r: 0, g: 0, b: 0, a: 0}
      data:
        first:
          name: _ImageTexCoords23
        second: {r: 0, g: 0, b: 0, a: 0}
      data:
        first:
          name: _ImageTexCoords24
        second: {r: 0, g: 0, b: 0, a: 0}
      data:
        first:
          name: _ImageTexCoords25
        second: {r: 0, g: 0, b: 0, a: 0}
      data:
        first:
          name: _ImageTexCoords26
        second: {r: 0, g: 0, b: 0, a: 0}
      data:
        first:
          name: _ImageTexCoords27
        second: {r: 0, g: 0, b: 0, a: 0}
      data:
        first:
          name: _ImageTexCoords28
        second: {r: 0, g: 0, b: 0, a: 0}
      data:
        first:
          name: _ImageTexCoords29
        second: {r: 0, g: 0, b: 0, a: 0}
      data:
        first:
          name: _ImageTexCoords30
        second: {r: 0, g: 0, b: 0, a: 0}
      data:
        first:
          name: _ImageTexCoords31
        second: {r: 0, g: 0, b: 0, a: 0}
      data:
        first:
          name: _InstanceData
        second: {r: 0, g: 0, b: 0, a: 0}
      data:
        first:
          name: _Color
        second: {r: 1, g: 1, b: 1, a: 1}
      data:
        first:
          name: _SpecColor
        second: {r: .5, g: .5, b: .5, a: 0}
      data:
        first:
          name: _HueVariation
        second: {r: 1, g: .5, b: 0, a: .100000001}
