%YAML 1.1
%TAG !u! tag:unity3d.com,2011:
--- !u!21 &2100000
Material:
  serializedVersion: 6
  m_ObjectHideFlags: 0
  m_PrefabParentObject: {fileID: 0}
  m_PrefabInternal: {fileID: 0}
  m_Name: model_Filter_Sponge_2_active
  m_Shader: {fileID: 46, guid: 0000000000000000f000000000000000, type: 0}
  m_ShaderKeywords: _EMISSION _NODE_6544_ON _NORMALMAP _PARALLAXMAP _TRUEFALSE_ON
  m_LightmapFlags: 1
  m_CustomRenderQueue: -1
  stringTagMap: {}
  m_SavedProperties:
    serializedVersion: 2
    m_TexEnvs:
      data:
        first:
          name: _MainTex
        second:
          m_Texture: {fileID: 2800000, guid: 6391a79147ebd405fa018bac0159ef27, type: 3}
          m_Scale: {x: 1, y: 5}
          m_Offset: {x: 0, y: 0}
      data:
        first:
          name: _BumpMap
        second:
          m_Texture: {fileID: 2800000, guid: e80fb8b96698849dfadf35846d323a03, type: 3}
          m_Scale: {x: 1, y: 1}
          m_Offset: {x: 0, y: 0}
      data:
        first:
          name: _DetailNormalMap
        second:
          m_Texture: {fileID: 0}
          m_Scale: {x: 1, y: 1}
          m_Offset: {x: 0, y: 0}
      data:
        first:
          name: _ParallaxMap
        second:
          m_Texture: {fileID: 2800000, guid: 6391a79147ebd405fa018bac0159ef27, type: 3}
          m_Scale: {x: 1, y: 1}
          m_Offset: {x: 0, y: 0}
      data:
        first:
          name: _OcclusionMap
        second:
          m_Texture: {fileID: 0}
          m_Scale: {x: 1, y: 1}
          m_Offset: {x: 0, y: 0}
      data:
        first:
          name: _EmissionMap
        second:
          m_Texture: {fileID: 0}
          m_Scale: {x: 1, y: 5}
          m_Offset: {x: 0, y: 0}
      data:
        first:
          name: _DetailMask
        second:
          m_Texture: {fileID: 0}
          m_Scale: {x: 1, y: 1}
          m_Offset: {x: 0, y: 0}
      data:
        first:
          name: _DetailAlbedoMap
        second:
          m_Texture: {fileID: 0}
          m_Scale: {x: 2, y: 2}
          m_Offset: {x: 0, y: 0}
      data:
        first:
          name: _MetallicGlossMap
        second:
          m_Texture: {fileID: 0}
          m_Scale: {x: 1, y: 1}
          m_Offset: {x: 0, y: 0}
      data:
        first:
          name: _Specular
        second:
          m_Texture: {fileID: 2800000, guid: c95488444b35e4240a5eec64af9f0118, type: 3}
          m_Scale: {x: 1, y: 1}
          m_Offset: {x: 0, y: 0}
      data:
        first:
          name: _BaseTexture
        second:
          m_Texture: {fileID: 2800000, guid: c95488444b35e4240a5eec64af9f0118, type: 3}
          m_Scale: {x: 1, y: 1}
          m_Offset: {x: 0, y: 0}
      data:
        first:
          name: _RAMP
        second:
          m_Texture: {fileID: 2800000, guid: ce3013e06bdf94b0aa51fb7f481b05f1, type: 3}
          m_Scale: {x: 20, y: 20}
          m_Offset: {x: 0, y: 0}
      data:
        first:
          name: _node_2799
        second:
          m_Texture: {fileID: 2800000, guid: bbb8e82645b874f0ba94c385a6a07302, type: 3}
          m_Scale: {x: 1, y: 1}
          m_Offset: {x: 0, y: 0}
    m_Floats:
      data:
        first:
          name: _SrcBlend
        second: 1
      data:
        first:
          name: _DstBlend
        second: 0
      data:
        first:
          name: _Cutoff
        second: 0
      data:
        first:
          name: _Shininess
        second: .078125
      data:
        first:
          name: _Parallax
        second: .0199999996
      data:
        first:
          name: _ZWrite
        second: 1
      data:
        first:
          name: _Glossiness
        second: 0
      data:
        first:
          name: _BumpScale
        second: 1
      data:
        first:
          name: _OcclusionStrength
        second: 0
      data:
        first:
          name: _DetailNormalMapScale
        second: -.829999983
      data:
        first:
          name: _UVSec
        second: 0
      data:
        first:
          name: _Mode
        second: 0
      data:
        first:
          name: _Metallic
        second: 0
      data:
        first:
          name: _EmissionScaleUI
        second: 0
      data:
        first:
          name: _Slider
        second: 0
      data:
        first:
          name: _EXP
        second: -20.9300003
      data:
        first:
          name: _Glow_Intensity
        second: 2.32999992
      data:
        first:
          name: _truefalse
        second: 1
      data:
        first:
          name: _node_7795
        second: 0
      data:
        first:
          name: _node_2832
        second: 0
      data:
        first:
          name: _node_5785
        second: 0
      data:
        first:
          name: _node_8826
        second: 0
      data:
        first:
          name: _node_6544
        second: 1
    m_Colors:
      data:
        first:
          name: _EmissionColor
        second: {r: .282413781, g: .319999993, b: 0, a: 1}
      data:
        first:
          name: _Color
        second: {r: .224892408, g: .485294104, b: 0, a: 1}
      data:
        first:
          name: _EmissionColorUI
        second: {r: 1, g: 1, b: 1, a: 1}
      data:
        first:
          name: _GlowColor
        second: {r: 0, g: .420689344, b: 1, a: 1}
      data:
        first:
          name: _BaseColor
        second: {r: 1, g: 0, b: 0, a: 1}
      data:
        first:
          name: _GlowColor_copy
        second: {r: .482454211, g: .985294104, b: 0, a: 1}
      data:
        first:
          name: _node_4820
        second: {r: 1, g: 1, b: 1, a: 1}
